module gitlab.com/Zeloid/ginebra.v1

require (
	github.com/gin-contrib/sse v0.0.0-20170109093832-22d885f9ecc7 // indirect
	github.com/gin-gonic/gin v1.3.0
	github.com/golang/protobuf v1.2.0 // indirect
	github.com/lib/pq v1.0.0
	github.com/mattn/go-isatty v0.0.4 // indirect
	github.com/ugorji/go/codec v0.0.0-20180927125128-99ea80c8b19a // indirect
	gopkg.in/go-playground/validator.v8 v8.18.2 // indirect
	gopkg.in/yaml.v2 v2.2.1 // indirect
)
